<svg width="80" height="26" viewBox="0 0 80 26" fill="none" xmlns="http://www.w3.org/2000/svg">
<g clip-path="url(#clip0)">
<path d="M67.0682 24.3319L68.9017 25.6176L80 9.76616L78.1665 8.48505" fill="#E4C291"/>
<path d="M43.0055 5.43545C43.0055 7.54743 41.6641 8.7125 39.2318 8.7125L31.6797 8.7125L31.6797 2.18625L39.2318 2.18625C41.7012 2.18625 43.0055 3.30954 43.0055 5.43545ZM39.1761 -2.70866e-07L29.3589 -6.99991e-07L29.3589 19.2167L31.6797 19.2167L31.6797 10.8988L39.1761 10.8988C43.0566 10.8988 45.3728 8.84711 45.3728 5.4076C45.3728 1.97273 43.1169 -9.86074e-08 39.1761 -2.70866e-07Z" fill="white"/>
<path d="M63.7355 -9.79988e-08L63.7355 15.0995L51.7691 0.111401L51.6809 -6.24919e-07L49.1187 -7.36918e-07L49.1187 19.2167L51.3839 19.2167L51.3839 3.17029L64.2739 19.2399L64.3621 19.3513L65.9774 19.3513L65.9774 0" fill="white"/>
<path d="M12.8065 2.31622C18.5901 2.31622 23.2968 7.02292 23.2968 12.8065C23.2968 18.5901 18.5901 23.2968 12.8065 23.2968C7.02296 23.2968 2.31625 18.5901 2.31625 12.8065C2.31625 7.02292 7.02296 2.31622 12.8065 2.31622ZM12.8065 -5.5979e-07C5.73256 -8.69003e-07 3.0267e-05 5.73252 2.99578e-05 12.8065C2.96486e-05 19.8805 5.73256 25.613 12.8065 25.613C19.8805 25.613 25.613 19.8805 25.613 12.8065C25.613 5.73252 19.8805 -2.50576e-07 12.8065 -5.5979e-07Z" fill="white"/>
</g>
<defs>
<clipPath id="clip0">
<rect width="25.6176" height="80" fill="white" transform="translate(80) rotate(90)"/>
</clipPath>
</defs>
</svg>
